Change component parameters: Designator = "D1"; Footprint = "LED_SMD"; UniqueID = "\JULBUPGG"
Change component parameters. Clean all parameters for all variants
Change component parameters (AddParameter): Name = ""; Value = "LTST-C171GKT"; VariantName = "[No Variations]"
Change component parameters: Designator = "D2"; Footprint = "LED_SMD"; UniqueID = "\RFHJCRMY"
Change component parameters. Clean all parameters for all variants
Change component parameters (AddParameter): Name = ""; Value = "LTST-C170YKT"; VariantName = "[No Variations]"
Change component parameters: Designator = "J1"; Footprint = "USB_A"; UniqueID = "\QWTOEQGF"
Change component parameters. Clean all parameters for all variants
Change component parameters (AddParameter): Name = ""; Value = "0480370001"; VariantName = "[No Variations]"
Change component parameters: Designator = "J2"; Footprint = "CONN 1X4"; UniqueID = "\HXSRFALW"
Change component parameters. Clean all parameters for all variants
Change component parameters (AddParameter): Name = ""; Value = "2011-1X4T00SPB"; VariantName = "[No Variations]"
Added Member To Class: ClassName=bridgeUSB Member=Component C2 47pF 50V C06
Added Member To Class: ClassName=bridgeUSB Member=Component D1 LED GREEN CLEAR
