Added Component: Designator=J3(JACK_DC)
Added Pin To Net: NetName=NetD2_1 Pin=J3-1
Added Pin To Net: NetName=GND Pin=J3-2
Added Pin To Net: NetName=GND Pin=J3-3
Added Member To Class: ClassName=U_power Member=Component J3 JACK_POWER
