Removed Pin From Net: NetName=NetCN3_9 Pin=R10-2
Removed Pin From Net: NetName=NetCN3_5 Pin=U6-16
Change Component Footprint: Designator=R6 Old Footprint=R_0805 New Footprint=R_0603
Change Component Footprint: Designator=R21 Old Footprint=R_0805 New Footprint=R_0603
Change Component Footprint: Designator=R22 Old Footprint=R_0805 New Footprint=R_0603
Change Component Footprint: Designator=R23 Old Footprint=R_0805 New Footprint=R_0603
Change Component Footprint: Designator=R24 Old Footprint=R_0805 New Footprint=R_0603
Change Component Footprint: Designator=R25 Old Footprint=R_0805 New Footprint=R_0603
Change Component Footprint: Designator=R26 Old Footprint=R_0805 New Footprint=R_0603
Change Component Footprint: Designator=R27 Old Footprint=R_0805 New Footprint=R_0603
Change Component Footprint: Designator=R28 Old Footprint=R_0805 New Footprint=R_0603
Change Component Footprint: Designator=R29 Old Footprint=R_0805 New Footprint=R_0603
Change Component Footprint: Designator=R30 Old Footprint=R_0805 New Footprint=R_0603
Change Component Footprint: Designator=R31 Old Footprint=R_0805 New Footprint=R_0603
Change Component Footprint: Designator=R32 Old Footprint=R_0805 New Footprint=R_0603
Change Component Footprint: Designator=R33 Old Footprint=R_0805 New Footprint=R_0603
Change Component Footprint: Designator=R34 Old Footprint=R_0805 New Footprint=R_0603
Change Component Footprint: Designator=R35 Old Footprint=R_0805 New Footprint=R_0603
Change Component Footprint: Designator=R36 Old Footprint=R_0805 New Footprint=R_0603
Change Component Footprint: Designator=R37 Old Footprint=R_0805 New Footprint=R_0603
Change Component Footprint: Designator=R38 Old Footprint=R_0805 New Footprint=R_0603
Change Component Footprint: Designator=R39 Old Footprint=R_0805 New Footprint=R_0603
Change Component Footprint: Designator=R40 Old Footprint=R_0805 New Footprint=R_0603
Change Component Footprint: Designator=R41 Old Footprint=R_0805 New Footprint=R_0603
Change Component Footprint: Designator=R42 Old Footprint=R_0805 New Footprint=R_0603
Change Component Footprint: Designator=R43 Old Footprint=R_0805 New Footprint=R_0603
Change Component Footprint: Designator=R44 Old Footprint=R_0805 New Footprint=R_0603
Change Component Footprint: Designator=R45 Old Footprint=R_0805 New Footprint=R_0603
Change Component Footprint: Designator=R46 Old Footprint=R_0805 New Footprint=R_0603
Change Component Footprint: Designator=R47 Old Footprint=R_0805 New Footprint=R_0603
Change Component Footprint: Designator=R48 Old Footprint=R_0805 New Footprint=R_0603
Change Component Footprint: Designator=R49 Old Footprint=R_0805 New Footprint=R_0603
Change Component Footprint: Designator=R50 Old Footprint=R_0805 New Footprint=R_0603
Change Component Footprint: Designator=R51 Old Footprint=R_0805 New Footprint=R_0603
Change Component Footprint: Designator=R52 Old Footprint=R_0805 New Footprint=R_0603
Change Component Footprint: Designator=R53 Old Footprint=R_0805 New Footprint=R_0603
Change Component Footprint: Designator=R54 Old Footprint=R_0805 New Footprint=R_0603
Change Component Footprint: Designator=R55 Old Footprint=R_0805 New Footprint=R_0603
Change Component Footprint: Designator=R56 Old Footprint=R_0805 New Footprint=R_0603
Change Component Footprint: Designator=R57 Old Footprint=R_0805 New Footprint=R_0603
Added Pin To Net: NetName=NetCN3_5 Pin=R10-2
Added Pin To Net: NetName=NetCN3_9 Pin=U6-16
