Change Component Footprint: Designator=C1 Old Footprint=C_0805 New Footprint=R_0603
Change Component Footprint: Designator=C2 Old Footprint=C_0805 New Footprint=R_0603
Change Component Footprint: Designator=C3 Old Footprint=C_0805 New Footprint=R_0603
Change Component Footprint: Designator=C4 Old Footprint=C_0805 New Footprint=R_0603
Change Component Footprint: Designator=C5 Old Footprint=C_0805 New Footprint=R_0603
Change Component Footprint: Designator=R1 Old Footprint=R_0805 New Footprint=R_0603
Change Component Footprint: Designator=R3 Old Footprint=R_0805 New Footprint=R_0603
Change Component Footprint: Designator=R4 Old Footprint=R_0805 New Footprint=R_0603
