Removed Pin From Net: NetName=GND_D Pin=C32-2
Removed Pin From Net: NetName=GND_D Pin=C33-1
Removed Pin From Net: NetName=GND_D Pin=U5-5
Added Pin To Net: NetName=GND_A Pin=C32-2
Added Pin To Net: NetName=GND_A Pin=C33-1
Added Pin To Net: NetName=GND_A Pin=U5-5
