Added Component: Designator=C1(C_0805)
Added Component: Designator=C2(C_0805)
Added Component: Designator=C3(C_0805)
Added Component: Designator=C4(C_0805)
Added Component: Designator=C5(C_0805)
Added Component: Designator=C6(C_0805)
Added Component: Designator=C7(C_0805)
Added Component: Designator=C8(C_0805)
Added Component: Designator=C9(C_0805)
Added Component: Designator=C10(C_0805)
Added Component: Designator=C11(C_0805)
Added Component: Designator=C12(C_0805)
Added Component: Designator=C13(C_0805)
Added Component: Designator=C14(C_0805)
Added Component: Designator=C15(C_0805)
Added Component: Designator=C16(C_0805)
Added Component: Designator=C17(C_0805)
Added Component: Designator=C18(C_0805)
Added Component: Designator=C19(C_0805)
Added Component: Designator=C20(C_0805)
Added Component: Designator=C21(C_0805)
Added Component: Designator=C22(CAP_ELECT_B)
Added Component: Designator=C23(CAP_ELECT_B)
Added Component: Designator=C24(CAP_ELECT_B)
Added Component: Designator=C25(C_0805)
Added Component: Designator=C26(C_0805)
Added Component: Designator=C27(C_0805)
Added Component: Designator=C28(CAP_ELECT_B)
Added Component: Designator=C29(C_0805)
Added Component: Designator=C30(CAP_ELECT_B)
Added Component: Designator=C31(C_0805)
Added Component: Designator=C32(CAP_ELECT_B)
Added Component: Designator=C33(C_0805)
Added Component: Designator=C34(CAP_ELECT_B)
Added Component: Designator=C35(C_0805)
Added Component: Designator=C36(CAP_ELECT_B)
Added Component: Designator=C37(C_0805)
Added Component: Designator=C38(C_0805)
Added Component: Designator=C39(C_0805)
Added Component: Designator=C40(C_0805)
Added Component: Designator=C41(C_0805)
Added Component: Designator=C42(C_0805)
Added Component: Designator=C43(C_0805)
Added Component: Designator=C44(C_0805)
Added Component: Designator=C45(CAP_ELECT_D)
Added Component: Designator=C46(CAP_ELECT_F)
Added Component: Designator=C47(CAP_ELECT_B)
Added Component: Designator=C48(CAP_ELECT_B)
Added Component: Designator=C49(CAP_ELECT_B)
Added Component: Designator=C50(CAP_ELECT_B)
Added Component: Designator=C52(C_0805)
Added Component: Designator=C53(C_0805)
Added Component: Designator=C54(C_0805)
Added Component: Designator=C55(C_0805)
Added Component: Designator=C56(CAP_ELECT_B)
Added Component: Designator=CN1(CONN 2x5)
Added Component: Designator=CN2(CONN 2X8)
Added Component: Designator=CN3(CONN 2X8)
Added Component: Designator=D1(LED_RGB_SMD)
Added Component: Designator=D2(Diode SOD-123FL)
Added Component: Designator=J1(RN11x)
Added Component: Designator=J2(RN11x)
Added Component: Designator=J3(JACK_DC)
Added Component: Designator=L1(L330uHy_SMD)
Added Component: Designator=L2(R_0805)
Added Component: Designator=L3(R_0805)
Added Component: Designator=L4(R_0805)
Added Component: Designator=L5(R_0805)
Added Component: Designator=L6(R_0805)
Added Component: Designator=Q1(SOT-323)
Added Component: Designator=Q2(SOT-323)
Added Component: Designator=Q3(SOT-323)
Added Component: Designator=R1(R_0805)
Added Component: Designator=R2(R_0805)
Added Component: Designator=R3(R_0805)
Added Component: Designator=R4(R_0805)
Added Component: Designator=R5(R_0805)
Added Component: Designator=R6(R_0805)
Added Component: Designator=R7(R_0805)
Added Component: Designator=R8(Potenciometer)
Added Component: Designator=R9(R_0805)
Added Component: Designator=R10(R_0805)
Added Component: Designator=R11(R_0805)
Added Component: Designator=R12(R_0805)
Added Component: Designator=R13(R_0805)
Added Component: Designator=R14(R_0805)
Added Component: Designator=R15(R_0805)
Added Component: Designator=R16(R_0805)
Added Component: Designator=R17(R_0805)
Added Component: Designator=R18(R_0805)
Added Component: Designator=R19(R_0805)
Added Component: Designator=R20(R_0805)
Added Component: Designator=R21(R_0805)
Added Component: Designator=R22(R_0805)
Added Component: Designator=R23(R_0805)
Added Component: Designator=R24(R_0805)
Added Component: Designator=R25(R_0805)
Added Component: Designator=R26(R_0805)
Added Component: Designator=R27(R_0805)
Added Component: Designator=R28(R_0805)
Added Component: Designator=R29(R_0805)
Added Component: Designator=R30(R_0805)
Added Component: Designator=R31(R_0805)
Added Component: Designator=R32(R_0805)
Added Component: Designator=R33(R_0805)
Added Component: Designator=R34(R_0805)
Added Component: Designator=R35(R_0805)
Added Component: Designator=R36(R_0805)
Added Component: Designator=R37(R_0805)
Added Component: Designator=R38(R_0805)
Added Component: Designator=R39(R_0805)
Added Component: Designator=R40(R_0805)
Added Component: Designator=R41(R_0805)
Added Component: Designator=R42(R_0805)
Added Component: Designator=R43(R_0805)
Added Component: Designator=R44(R_0805)
Added Component: Designator=R45(R_0805)
Added Component: Designator=R46(R_0805)
Added Component: Designator=R47(R_0805)
Added Component: Designator=R48(R_0805)
Added Component: Designator=R49(R_0805)
Added Component: Designator=R50(R_0805)
Added Component: Designator=R51(R_0805)
Added Component: Designator=R52(R_0805)
Added Component: Designator=R53(R_0805)
Added Component: Designator=R54(R_0805)
Added Component: Designator=R55(R_0805)
Added Component: Designator=R56(R_0805)
Added Component: Designator=R57(R_0805)
Added Component: Designator=SW1(MJTP1243)
Added Component: Designator=SW2(TL3300DF160Q)
Added Component: Designator=U1(LQFP144)
Added Component: Designator=U3(SOIC_8)
Added Component: Designator=U4(SOIC_8)
Added Component: Designator=U5(TSSOP_14)
Added Component: Designator=U6(TSSOP_14)
Added Component: Designator=U7(TSSOP_54)
Added Component: Designator=U9(SOT-223)
Added Component: Designator=XTAL 16.0000MHZ 20pf SMD(HC49SDLF)
Added Pin To Net: NetName=3V3_A Pin=C50-1
Added Pin To Net: NetName=3V3_A Pin=C53-2
Added Pin To Net: NetName=3V3_A Pin=L2-1
Added Net: Name=3V3_A
Added Pin To Net: NetName=3V3_D__TOP Pin=C3-2
Added Pin To Net: NetName=3V3_D__TOP Pin=C4-2
Added Pin To Net: NetName=3V3_D__TOP Pin=C6-2
Added Pin To Net: NetName=3V3_D__TOP Pin=C7-2
Added Pin To Net: NetName=3V3_D__TOP Pin=C8-2
Added Pin To Net: NetName=3V3_D__TOP Pin=C9-2
Added Pin To Net: NetName=3V3_D__TOP Pin=C10-2
Added Pin To Net: NetName=3V3_D__TOP Pin=C11-2
Added Pin To Net: NetName=3V3_D__TOP Pin=C12-2
Added Pin To Net: NetName=3V3_D__TOP Pin=C15-2
Added Pin To Net: NetName=3V3_D__TOP Pin=C16-2
Added Pin To Net: NetName=3V3_D__TOP Pin=C17-2
Added Pin To Net: NetName=3V3_D__TOP Pin=C18-2
Added Pin To Net: NetName=3V3_D__TOP Pin=C19-2
Added Pin To Net: NetName=3V3_D__TOP Pin=C26-2
Added Pin To Net: NetName=3V3_D__TOP Pin=C27-2
Added Pin To Net: NetName=3V3_D__TOP Pin=C38-2
Added Pin To Net: NetName=3V3_D__TOP Pin=C39-2
Added Pin To Net: NetName=3V3_D__TOP Pin=C40-2
Added Pin To Net: NetName=3V3_D__TOP Pin=C41-2
Added Pin To Net: NetName=3V3_D__TOP Pin=C42-2
Added Pin To Net: NetName=3V3_D__TOP Pin=C43-2
Added Pin To Net: NetName=3V3_D__TOP Pin=C44-2
Added Pin To Net: NetName=3V3_D__TOP Pin=C55-2
Added Pin To Net: NetName=3V3_D__TOP Pin=CN1-7
Added Pin To Net: NetName=3V3_D__TOP Pin=CN1-8
Added Pin To Net: NetName=3V3_D__TOP Pin=CN2-16
Added Pin To Net: NetName=3V3_D__TOP Pin=R2-2
Added Pin To Net: NetName=3V3_D__TOP Pin=R4-2
Added Pin To Net: NetName=3V3_D__TOP Pin=U1-6
Added Pin To Net: NetName=3V3_D__TOP Pin=U1-17
Added Pin To Net: NetName=3V3_D__TOP Pin=U1-30
Added Pin To Net: NetName=3V3_D__TOP Pin=U1-32
Added Pin To Net: NetName=3V3_D__TOP Pin=U1-33
Added Pin To Net: NetName=3V3_D__TOP Pin=U1-39
Added Pin To Net: NetName=3V3_D__TOP Pin=U1-52
Added Pin To Net: NetName=3V3_D__TOP Pin=U1-62
Added Pin To Net: NetName=3V3_D__TOP Pin=U1-72
Added Pin To Net: NetName=3V3_D__TOP Pin=U1-84
Added Pin To Net: NetName=3V3_D__TOP Pin=U1-95
Added Pin To Net: NetName=3V3_D__TOP Pin=U1-108
Added Pin To Net: NetName=3V3_D__TOP Pin=U1-121
Added Pin To Net: NetName=3V3_D__TOP Pin=U1-131
Added Pin To Net: NetName=3V3_D__TOP Pin=U1-144
Added Pin To Net: NetName=3V3_D__TOP Pin=U7-1
Added Pin To Net: NetName=3V3_D__TOP Pin=U7-3
Added Pin To Net: NetName=3V3_D__TOP Pin=U7-9
Added Pin To Net: NetName=3V3_D__TOP Pin=U7-14
Added Pin To Net: NetName=3V3_D__TOP Pin=U7-27
Added Pin To Net: NetName=3V3_D__TOP Pin=U7-43
Added Pin To Net: NetName=3V3_D__TOP Pin=U7-49
Added Net: Name=3V3_D__TOP
Added Pin To Net: NetName=3V3_D Pin=C32-1
Added Pin To Net: NetName=3V3_D Pin=C33-2
Added Pin To Net: NetName=3V3_D Pin=C49-1
Added Pin To Net: NetName=3V3_D Pin=C52-2
Added Pin To Net: NetName=3V3_D Pin=CN3-1
Added Pin To Net: NetName=3V3_D Pin=L3-2
Added Pin To Net: NetName=3V3_D Pin=R14-2
Added Pin To Net: NetName=3V3_D Pin=U5-4
Added Net: Name=3V3_D
Added Pin To Net: NetName=3V3 Pin=C48-1
Added Pin To Net: NetName=3V3 Pin=L2-2
Added Pin To Net: NetName=3V3 Pin=L3-1
Added Pin To Net: NetName=3V3 Pin=U9-4
Added Net: Name=3V3
Added Pin To Net: NetName=5V_A Pin=C28-1
Added Pin To Net: NetName=5V_A Pin=C29-2
Added Pin To Net: NetName=5V_A Pin=C34-1
Added Pin To Net: NetName=5V_A Pin=C35-2
Added Pin To Net: NetName=5V_A Pin=C54-2
Added Pin To Net: NetName=5V_A Pin=L4-2
Added Pin To Net: NetName=5V_A Pin=U3-7
Added Pin To Net: NetName=5V_A Pin=U4-7
Added Pin To Net: NetName=5V_A Pin=U5-3
Added Pin To Net: NetName=5V_A Pin=U6-3
Added Pin To Net: NetName=5V_A Pin=U6-11
Added Net: Name=5V_A
Added Pin To Net: NetName=5V_D__TOP Pin=CN1-9
Added Pin To Net: NetName=5V_D__TOP Pin=CN1-10
Added Pin To Net: NetName=5V_D__TOP Pin=CN2-15
Added Pin To Net: NetName=5V_D__TOP Pin=D1-1
Added Pin To Net: NetName=5V_D__TOP Pin=D1-3
Added Pin To Net: NetName=5V_D__TOP Pin=D1-5
Added Net: Name=5V_D__TOP
Added Pin To Net: NetName=5V_D Pin=CN3-2
Added Net: Name=5V_D
Added Pin To Net: NetName=FMC_A0 Pin=R31-2
Added Pin To Net: NetName=FMC_A0 Pin=U1-10
Added Net: Name=FMC_A0
Added Pin To Net: NetName=FMC_A1 Pin=R30-2
Added Pin To Net: NetName=FMC_A1 Pin=U1-11
Added Net: Name=FMC_A1
Added Pin To Net: NetName=FMC_A2 Pin=R29-2
Added Pin To Net: NetName=FMC_A2 Pin=U1-12
Added Net: Name=FMC_A2
Added Pin To Net: NetName=FMC_A3 Pin=R28-2
Added Pin To Net: NetName=FMC_A3 Pin=U1-13
Added Net: Name=FMC_A3
Added Pin To Net: NetName=FMC_A4 Pin=R27-2
Added Pin To Net: NetName=FMC_A4 Pin=U1-14
Added Net: Name=FMC_A4
Added Pin To Net: NetName=FMC_A5 Pin=R26-2
Added Pin To Net: NetName=FMC_A5 Pin=U1-15
Added Net: Name=FMC_A5
Added Pin To Net: NetName=FMC_A6 Pin=R25-2
Added Pin To Net: NetName=FMC_A6 Pin=U1-50
Added Net: Name=FMC_A6
Added Pin To Net: NetName=FMC_A7 Pin=R24-2
Added Pin To Net: NetName=FMC_A7 Pin=U1-53
Added Net: Name=FMC_A7
Added Pin To Net: NetName=FMC_A8 Pin=R23-2
Added Pin To Net: NetName=FMC_A8 Pin=U1-54
Added Net: Name=FMC_A8
Added Pin To Net: NetName=FMC_A9 Pin=R22-2
Added Pin To Net: NetName=FMC_A9 Pin=U1-55
Added Net: Name=FMC_A9
Added Pin To Net: NetName=FMC_A10 Pin=R21-2
Added Pin To Net: NetName=FMC_A10 Pin=U1-56
Added Net: Name=FMC_A10
Added Pin To Net: NetName=FMC_A11 Pin=R6-2
Added Pin To Net: NetName=FMC_A11 Pin=U1-57
Added Net: Name=FMC_A11
Added Pin To Net: NetName=FMC_D0 Pin=R47-1
Added Pin To Net: NetName=FMC_D0 Pin=U1-85
Added Net: Name=FMC_D0
Added Pin To Net: NetName=FMC_D1 Pin=R46-1
Added Pin To Net: NetName=FMC_D1 Pin=U1-86
Added Net: Name=FMC_D1
Added Pin To Net: NetName=FMC_D2 Pin=R45-1
Added Pin To Net: NetName=FMC_D2 Pin=U1-114
Added Net: Name=FMC_D2
Added Pin To Net: NetName=FMC_D3 Pin=R44-1
Added Pin To Net: NetName=FMC_D3 Pin=U1-115
Added Net: Name=FMC_D3
Added Pin To Net: NetName=FMC_D4 Pin=R43-1
Added Pin To Net: NetName=FMC_D4 Pin=U1-58
Added Net: Name=FMC_D4
Added Pin To Net: NetName=FMC_D5 Pin=R42-1
Added Pin To Net: NetName=FMC_D5 Pin=U1-59
Added Net: Name=FMC_D5
Added Pin To Net: NetName=FMC_D6 Pin=R41-1
Added Pin To Net: NetName=FMC_D6 Pin=U1-60
Added Net: Name=FMC_D6
Added Pin To Net: NetName=FMC_D7 Pin=R40-1
Added Pin To Net: NetName=FMC_D7 Pin=U1-63
Added Net: Name=FMC_D7
Added Pin To Net: NetName=FMC_D8 Pin=R39-1
Added Pin To Net: NetName=FMC_D8 Pin=U1-64
Added Net: Name=FMC_D8
Added Pin To Net: NetName=FMC_D9 Pin=R38-1
Added Pin To Net: NetName=FMC_D9 Pin=U1-65
Added Net: Name=FMC_D9
Added Pin To Net: NetName=FMC_D10 Pin=R37-1
Added Pin To Net: NetName=FMC_D10 Pin=U1-66
Added Net: Name=FMC_D10
Added Pin To Net: NetName=FMC_D11 Pin=R36-1
Added Pin To Net: NetName=FMC_D11 Pin=U1-67
Added Net: Name=FMC_D11
Added Pin To Net: NetName=FMC_D12 Pin=R35-1
Added Pin To Net: NetName=FMC_D12 Pin=U1-68
Added Net: Name=FMC_D12
Added Pin To Net: NetName=FMC_D13 Pin=R34-1
Added Pin To Net: NetName=FMC_D13 Pin=U1-77
Added Net: Name=FMC_D13
Added Pin To Net: NetName=FMC_D14 Pin=R33-1
Added Pin To Net: NetName=FMC_D14 Pin=U1-78
Added Net: Name=FMC_D14
Added Pin To Net: NetName=FMC_D15 Pin=R32-1
Added Pin To Net: NetName=FMC_D15 Pin=U1-79
Added Net: Name=FMC_D15
Added Pin To Net: NetName=GND_A Pin=C23-2
Added Pin To Net: NetName=GND_A Pin=C25-1
Added Pin To Net: NetName=GND_A Pin=C28-2
Added Pin To Net: NetName=GND_A Pin=C29-1
Added Pin To Net: NetName=GND_A Pin=C30-2
Added Pin To Net: NetName=GND_A Pin=C31-1
Added Pin To Net: NetName=GND_A Pin=C34-2
Added Pin To Net: NetName=GND_A Pin=C35-1
Added Pin To Net: NetName=GND_A Pin=C36-2
Added Pin To Net: NetName=GND_A Pin=C50-2
Added Pin To Net: NetName=GND_A Pin=C53-1
Added Pin To Net: NetName=GND_A Pin=C54-1
Added Pin To Net: NetName=GND_A Pin=C56-2
Added Pin To Net: NetName=GND_A Pin=J1-S
Added Pin To Net: NetName=GND_A Pin=J2-S
Added Pin To Net: NetName=GND_A Pin=L5-1
Added Pin To Net: NetName=GND_A Pin=U3-4
Added Pin To Net: NetName=GND_A Pin=U4-4
Added Pin To Net: NetName=GND_A Pin=U5-2
Added Pin To Net: NetName=GND_A Pin=U5-10
Added Pin To Net: NetName=GND_A Pin=U5-11
Added Pin To Net: NetName=GND_A Pin=U5-12
Added Pin To Net: NetName=GND_A Pin=U5-13
Added Pin To Net: NetName=GND_A Pin=U6-1
Added Pin To Net: NetName=GND_A Pin=U6-2
Added Pin To Net: NetName=GND_A Pin=U6-12
Added Net: Name=GND_A
Added Pin To Net: NetName=GND_D__TOP Pin=C1-2
Added Pin To Net: NetName=GND_D__TOP Pin=C2-2
Added Pin To Net: NetName=GND_D__TOP Pin=C3-1
Added Pin To Net: NetName=GND_D__TOP Pin=C4-1
Added Pin To Net: NetName=GND_D__TOP Pin=C5-1
Added Pin To Net: NetName=GND_D__TOP Pin=C6-1
Added Pin To Net: NetName=GND_D__TOP Pin=C7-1
Added Pin To Net: NetName=GND_D__TOP Pin=C8-1
Added Pin To Net: NetName=GND_D__TOP Pin=C9-1
Added Pin To Net: NetName=GND_D__TOP Pin=C10-1
Added Pin To Net: NetName=GND_D__TOP Pin=C11-1
Added Pin To Net: NetName=GND_D__TOP Pin=C12-1
Added Pin To Net: NetName=GND_D__TOP Pin=C13-2
Added Pin To Net: NetName=GND_D__TOP Pin=C14-2
Added Pin To Net: NetName=GND_D__TOP Pin=C15-1
Added Pin To Net: NetName=GND_D__TOP Pin=C16-1
Added Pin To Net: NetName=GND_D__TOP Pin=C17-1
Added Pin To Net: NetName=GND_D__TOP Pin=C18-1
Added Pin To Net: NetName=GND_D__TOP Pin=C19-1
Added Pin To Net: NetName=GND_D__TOP Pin=C20-1
Added Pin To Net: NetName=GND_D__TOP Pin=C20-2
Added Pin To Net: NetName=GND_D__TOP Pin=C21-1
Added Pin To Net: NetName=GND_D__TOP Pin=C21-2
Added Pin To Net: NetName=GND_D__TOP Pin=C26-1
Added Pin To Net: NetName=GND_D__TOP Pin=C27-1
Added Pin To Net: NetName=GND_D__TOP Pin=C38-1
Added Pin To Net: NetName=GND_D__TOP Pin=C39-1
Added Pin To Net: NetName=GND_D__TOP Pin=C40-1
Added Pin To Net: NetName=GND_D__TOP Pin=C41-1
Added Pin To Net: NetName=GND_D__TOP Pin=C42-1
Added Pin To Net: NetName=GND_D__TOP Pin=C43-1
Added Pin To Net: NetName=GND_D__TOP Pin=C44-1
Added Pin To Net: NetName=GND_D__TOP Pin=C55-1
Added Pin To Net: NetName=GND_D__TOP Pin=CN1-3
Added Pin To Net: NetName=GND_D__TOP Pin=CN1-4
Added Pin To Net: NetName=GND_D__TOP Pin=CN2-14
Added Pin To Net: NetName=GND_D__TOP Pin=Q1-2
Added Pin To Net: NetName=GND_D__TOP Pin=Q2-2
Added Pin To Net: NetName=GND_D__TOP Pin=Q3-2
Added Pin To Net: NetName=GND_D__TOP Pin=R3-2
Added Pin To Net: NetName=GND_D__TOP Pin=SW1-1
Added Pin To Net: NetName=GND_D__TOP Pin=U1-16
Added Pin To Net: NetName=GND_D__TOP Pin=U1-31
Added Pin To Net: NetName=GND_D__TOP Pin=U1-38
Added Pin To Net: NetName=GND_D__TOP Pin=U1-51
Added Pin To Net: NetName=GND_D__TOP Pin=U1-61
Added Pin To Net: NetName=GND_D__TOP Pin=U1-71
Added Pin To Net: NetName=GND_D__TOP Pin=U1-83
Added Pin To Net: NetName=GND_D__TOP Pin=U1-94
Added Pin To Net: NetName=GND_D__TOP Pin=U1-107
Added Pin To Net: NetName=GND_D__TOP Pin=U1-120
Added Pin To Net: NetName=GND_D__TOP Pin=U1-130
Added Pin To Net: NetName=GND_D__TOP Pin=U7-6
Added Pin To Net: NetName=GND_D__TOP Pin=U7-12
Added Pin To Net: NetName=GND_D__TOP Pin=U7-28
Added Pin To Net: NetName=GND_D__TOP Pin=U7-41
Added Pin To Net: NetName=GND_D__TOP Pin=U7-46
Added Pin To Net: NetName=GND_D__TOP Pin=U7-52
Added Pin To Net: NetName=GND_D__TOP Pin=U7-54
Added Net: Name=GND_D__TOP
Added Pin To Net: NetName=GND_D Pin=C32-2
Added Pin To Net: NetName=GND_D Pin=C33-1
Added Pin To Net: NetName=GND_D Pin=C37-1
Added Pin To Net: NetName=GND_D Pin=C49-2
Added Pin To Net: NetName=GND_D Pin=C52-1
Added Pin To Net: NetName=GND_D Pin=CN3-3
Added Pin To Net: NetName=GND_D Pin=L6-2
Added Pin To Net: NetName=GND_D Pin=SW2-1
Added Pin To Net: NetName=GND_D Pin=SW2-3
Added Pin To Net: NetName=GND_D Pin=U5-5
Added Net: Name=GND_D
Added Pin To Net: NetName=GND Pin=C45-2
Added Pin To Net: NetName=GND Pin=C46-2
Added Pin To Net: NetName=GND Pin=C47-2
Added Pin To Net: NetName=GND Pin=C48-2
Added Pin To Net: NetName=GND Pin=J3-2
Added Pin To Net: NetName=GND Pin=J3-3
Added Pin To Net: NetName=GND Pin=L5-2
Added Pin To Net: NetName=GND Pin=L6-1
Added Pin To Net: NetName=GND Pin=U9-1
Added Net: Name=GND
Added Pin To Net: NetName=NetC1_1 Pin=C1-1
Added Pin To Net: NetName=NetC1_1 Pin=U1-23
Added Pin To Net: NetName=NetC1_1 Pin=XTAL 16.0000MHZ 20pf SMD-2
Added Net: Name=NetC1_1
Added Pin To Net: NetName=NetC2_1 Pin=C2-1
Added Pin To Net: NetName=NetC2_1 Pin=R1-2
Added Pin To Net: NetName=NetC2_1 Pin=XTAL 16.0000MHZ 20pf SMD-1
Added Net: Name=NetC2_1
Added Pin To Net: NetName=NetC13_1 Pin=C13-1
Added Pin To Net: NetName=NetC13_1 Pin=C14-1
Added Pin To Net: NetName=NetC13_1 Pin=U1-106
Added Net: Name=NetC13_1
Added Pin To Net: NetName=NetC22_1 Pin=C22-1
Added Pin To Net: NetName=NetC22_1 Pin=C30-1
Added Pin To Net: NetName=NetC22_1 Pin=C31-2
Added Pin To Net: NetName=NetC22_1 Pin=C56-1
Added Pin To Net: NetName=NetC22_1 Pin=U3-3
Added Pin To Net: NetName=NetC22_1 Pin=U5-1
Added Net: Name=NetC22_1
Added Pin To Net: NetName=NetC22_2 Pin=C22-2
Added Pin To Net: NetName=NetC22_2 Pin=J1-T
Added Net: Name=NetC22_2
Added Pin To Net: NetName=NetC23_1 Pin=C23-1
Added Pin To Net: NetName=NetC23_1 Pin=R7-2
Added Net: Name=NetC23_1
Added Pin To Net: NetName=NetC24_1 Pin=C24-1
Added Pin To Net: NetName=NetC24_1 Pin=U4-2
Added Pin To Net: NetName=NetC24_1 Pin=U4-6
Added Net: Name=NetC24_1
Added Pin To Net: NetName=NetC24_2 Pin=C24-2
Added Pin To Net: NetName=NetC24_2 Pin=J2-T
Added Net: Name=NetC24_2
Added Pin To Net: NetName=NetC25_2 Pin=C25-2
Added Pin To Net: NetName=NetC25_2 Pin=R9-2
Added Pin To Net: NetName=NetC25_2 Pin=U4-3
Added Net: Name=NetC25_2
Added Pin To Net: NetName=NetC36_1 Pin=C36-1
Added Pin To Net: NetName=NetC36_1 Pin=U6-13
Added Net: Name=NetC36_1
Added Pin To Net: NetName=NetC37_2 Pin=C37-2
Added Pin To Net: NetName=NetC37_2 Pin=CN3-6
Added Pin To Net: NetName=NetC37_2 Pin=R14-1
Added Pin To Net: NetName=NetC37_2 Pin=SW2-2
Added Pin To Net: NetName=NetC37_2 Pin=SW2-4
Added Net: Name=NetC37_2
Added Pin To Net: NetName=NetC45_1 Pin=C45-1
Added Pin To Net: NetName=NetC45_1 Pin=D2-2
Added Net: Name=NetC45_1
Added Pin To Net: NetName=NetCN2_1 Pin=CN2-1
Added Pin To Net: NetName=NetCN2_1 Pin=U1-43
Added Net: Name=NetCN2_1
Added Pin To Net: NetName=NetCN2_2 Pin=CN2-2
Added Pin To Net: NetName=NetCN2_2 Pin=U1-40
Added Net: Name=NetCN2_2
Added Pin To Net: NetName=NetCN2_3 Pin=CN2-3
Added Pin To Net: NetName=NetCN2_3 Pin=U1-41
Added Net: Name=NetCN2_3
Added Pin To Net: NetName=NetCN2_4 Pin=CN2-4
Added Pin To Net: NetName=NetCN2_4 Pin=U1-44
Added Net: Name=NetCN2_4
Added Pin To Net: NetName=NetCN2_5 Pin=CN2-5
Added Pin To Net: NetName=NetCN2_5 Pin=U1-27
Added Net: Name=NetCN2_5
Added Pin To Net: NetName=NetCN2_6 Pin=CN2-6
Added Pin To Net: NetName=NetCN2_6 Pin=U1-73
Added Net: Name=NetCN2_6
Added Pin To Net: NetName=NetCN2_7 Pin=CN2-7
Added Pin To Net: NetName=NetCN2_7 Pin=U1-69
Added Net: Name=NetCN2_7
Added Pin To Net: NetName=NetCN2_8 Pin=CN2-8
Added Pin To Net: NetName=NetCN2_8 Pin=U1-42
Added Net: Name=NetCN2_8
Added Pin To Net: NetName=NetCN2_9 Pin=R8-1
Added Pin To Net: NetName=NetCN2_9 Pin=R8-2
Added Net: Name=NetCN2_9
Added Pin To Net: NetName=NetCN2_10 Pin=CN2-10
Added Pin To Net: NetName=NetCN2_10 Pin=R8-3
Added Net: Name=NetCN2_10
Added Pin To Net: NetName=NetCN2_11 Pin=CN2-11
Added Pin To Net: NetName=NetCN2_11 Pin=U1-9
Added Net: Name=NetCN2_11
Added Pin To Net: NetName=NetCN2_12 Pin=CN2-12
Added Pin To Net: NetName=NetCN2_12 Pin=U1-112
Added Net: Name=NetCN2_12
Added Pin To Net: NetName=NetCN2_13 Pin=CN2-13
Added Pin To Net: NetName=NetCN2_13 Pin=U1-111
Added Net: Name=NetCN2_13
Added Pin To Net: NetName=NetCN3_4 Pin=CN3-4
Added Pin To Net: NetName=NetCN3_4 Pin=U6-4
Added Net: Name=NetCN3_4
Added Pin To Net: NetName=NetCN3_5 Pin=CN3-5
Added Net: Name=NetCN3_5
Added Pin To Net: NetName=NetCN3_7 Pin=CN3-7
Added Pin To Net: NetName=NetCN3_7 Pin=R7-1
Added Net: Name=NetCN3_7
Added Pin To Net: NetName=NetCN3_8 Pin=CN3-8
Added Pin To Net: NetName=NetCN3_8 Pin=R5-1
Added Pin To Net: NetName=NetCN3_8 Pin=U3-2
Added Net: Name=NetCN3_8
Added Pin To Net: NetName=NetCN3_9 Pin=R10-2
Added Net: Name=NetCN3_9
Added Pin To Net: NetName=NetCN3_10 Pin=CN3-10
Added Pin To Net: NetName=NetCN3_10 Pin=R11-2
Added Net: Name=NetCN3_10
Added Pin To Net: NetName=NetCN3_11 Pin=CN3-11
Added Pin To Net: NetName=NetCN3_11 Pin=R12-2
Added Net: Name=NetCN3_11
Added Pin To Net: NetName=NetCN3_12 Pin=CN3-12
Added Pin To Net: NetName=NetCN3_12 Pin=R13-2
Added Net: Name=NetCN3_12
Added Pin To Net: NetName=NetCN3_13 Pin=CN3-13
Added Pin To Net: NetName=NetCN3_13 Pin=U5-6
Added Net: Name=NetCN3_13
Added Pin To Net: NetName=NetCN3_14 Pin=CN3-14
Added Net: Name=NetCN3_14
Added Pin To Net: NetName=NetCN3_15 Pin=CN3-15
Added Pin To Net: NetName=NetCN3_15 Pin=U5-7
Added Net: Name=NetCN3_15
Added Pin To Net: NetName=NetCN3_16 Pin=CN3-16
Added Net: Name=NetCN3_16
Added Pin To Net: NetName=NetD1_2 Pin=D1-2
Added Pin To Net: NetName=NetD1_2 Pin=R15-2
Added Net: Name=NetD1_2
Added Pin To Net: NetName=NetD1_4 Pin=D1-4
Added Pin To Net: NetName=NetD1_4 Pin=R17-2
Added Net: Name=NetD1_4
Added Pin To Net: NetName=NetD1_6 Pin=D1-6
Added Pin To Net: NetName=NetD1_6 Pin=R16-2
Added Net: Name=NetD1_6
Added Pin To Net: NetName=NetD2_1 Pin=D2-1
Added Pin To Net: NetName=NetD2_1 Pin=J3-1
Added Net: Name=NetD2_1
Added Pin To Net: NetName=NetD3_2 Pin=L1-1
Added Net: Name=NetD3_2
Added Pin To Net: NetName=NetQ1_1 Pin=Q1-1
Added Pin To Net: NetName=NetQ1_1 Pin=R18-2
Added Net: Name=NetQ1_1
Added Pin To Net: NetName=NetQ1_3 Pin=Q1-3
Added Pin To Net: NetName=NetQ1_3 Pin=R15-1
Added Net: Name=NetQ1_3
Added Pin To Net: NetName=NetQ2_1 Pin=Q2-1
Added Pin To Net: NetName=NetQ2_1 Pin=R19-2
Added Net: Name=NetQ2_1
Added Pin To Net: NetName=NetQ2_3 Pin=Q2-3
Added Pin To Net: NetName=NetQ2_3 Pin=R16-1
Added Net: Name=NetQ2_3
Added Pin To Net: NetName=NetQ3_1 Pin=Q3-1
Added Pin To Net: NetName=NetQ3_1 Pin=R20-2
Added Net: Name=NetQ3_1
Added Pin To Net: NetName=NetQ3_3 Pin=Q3-3
Added Pin To Net: NetName=NetQ3_3 Pin=R17-1
Added Net: Name=NetQ3_3
Added Pin To Net: NetName=NetR1_1 Pin=R1-1
Added Pin To Net: NetName=NetR1_1 Pin=U1-24
Added Net: Name=NetR1_1
Added Pin To Net: NetName=NetR2_1 Pin=R2-1
Added Pin To Net: NetName=NetR2_1 Pin=U1-143
Added Net: Name=NetR2_1
Added Pin To Net: NetName=NetR3_1 Pin=R3-1
Added Pin To Net: NetName=NetR3_1 Pin=U1-138
Added Net: Name=NetR3_1
Added Pin To Net: NetName=NetR5_2 Pin=R5-2
Added Pin To Net: NetName=NetR5_2 Pin=U3-6
Added Pin To Net: NetName=NetR5_2 Pin=U5-14
Added Net: Name=NetR5_2
Added Pin To Net: NetName=NetR6_1 Pin=R6-1
Added Pin To Net: NetName=NetR6_1 Pin=U7-35
Added Net: Name=NetR6_1
Added Pin To Net: NetName=NetR9_1 Pin=R9-1
Added Pin To Net: NetName=NetR9_1 Pin=U6-14
Added Net: Name=NetR9_1
Added Pin To Net: NetName=NetR10_1 Pin=R10-1
Added Pin To Net: NetName=NetR10_1 Pin=U6-5
Added Net: Name=NetR10_1
Added Pin To Net: NetName=NetR11_1 Pin=R11-1
Added Pin To Net: NetName=NetR11_1 Pin=U6-7
Added Net: Name=NetR11_1
Added Pin To Net: NetName=NetR12_1 Pin=R12-1
Added Net: Name=NetR12_1
Added Pin To Net: NetName=NetR13_1 Pin=R13-1
Added Pin To Net: NetName=NetR13_1 Pin=U6-6
Added Net: Name=NetR13_1
Added Pin To Net: NetName=NetR18_1 Pin=R18-1
Added Pin To Net: NetName=NetR18_1 Pin=U1-113
Added Net: Name=NetR18_1
Added Pin To Net: NetName=NetR19_1 Pin=R19-1
Added Pin To Net: NetName=NetR19_1 Pin=U1-7
Added Net: Name=NetR19_1
Added Pin To Net: NetName=NetR20_1 Pin=R20-1
Added Pin To Net: NetName=NetR20_1 Pin=U1-8
Added Net: Name=NetR20_1
Added Pin To Net: NetName=NetR21_1 Pin=R21-1
Added Pin To Net: NetName=NetR21_1 Pin=U7-22
Added Net: Name=NetR21_1
Added Pin To Net: NetName=NetR22_1 Pin=R22-1
Added Pin To Net: NetName=NetR22_1 Pin=U7-34
Added Net: Name=NetR22_1
Added Pin To Net: NetName=NetR23_1 Pin=R23-1
Added Pin To Net: NetName=NetR23_1 Pin=U7-33
Added Net: Name=NetR23_1
Added Pin To Net: NetName=NetR24_1 Pin=R24-1
Added Pin To Net: NetName=NetR24_1 Pin=U7-32
Added Net: Name=NetR24_1
Added Pin To Net: NetName=NetR25_1 Pin=R25-1
Added Pin To Net: NetName=NetR25_1 Pin=U7-31
Added Net: Name=NetR25_1
Added Pin To Net: NetName=NetR26_1 Pin=R26-1
Added Pin To Net: NetName=NetR26_1 Pin=U7-30
Added Net: Name=NetR26_1
Added Pin To Net: NetName=NetR27_1 Pin=R27-1
Added Pin To Net: NetName=NetR27_1 Pin=U7-29
Added Net: Name=NetR27_1
Added Pin To Net: NetName=NetR28_1 Pin=R28-1
Added Pin To Net: NetName=NetR28_1 Pin=U7-26
Added Net: Name=NetR28_1
Added Pin To Net: NetName=NetR29_1 Pin=R29-1
Added Pin To Net: NetName=NetR29_1 Pin=U7-25
Added Net: Name=NetR29_1
Added Pin To Net: NetName=NetR30_1 Pin=R30-1
Added Pin To Net: NetName=NetR30_1 Pin=U7-24
Added Net: Name=NetR30_1
Added Pin To Net: NetName=NetR31_1 Pin=R31-1
Added Pin To Net: NetName=NetR31_1 Pin=U7-23
Added Net: Name=NetR31_1
Added Pin To Net: NetName=NetR32_2 Pin=R32-2
Added Pin To Net: NetName=NetR32_2 Pin=U7-53
Added Net: Name=NetR32_2
Added Pin To Net: NetName=NetR33_2 Pin=R33-2
Added Pin To Net: NetName=NetR33_2 Pin=U7-51
Added Net: Name=NetR33_2
Added Pin To Net: NetName=NetR34_2 Pin=R34-2
Added Pin To Net: NetName=NetR34_2 Pin=U7-50
Added Net: Name=NetR34_2
Added Pin To Net: NetName=NetR35_2 Pin=R35-2
Added Pin To Net: NetName=NetR35_2 Pin=U7-48
Added Net: Name=NetR35_2
Added Pin To Net: NetName=NetR36_2 Pin=R36-2
Added Pin To Net: NetName=NetR36_2 Pin=U7-47
Added Net: Name=NetR36_2
Added Pin To Net: NetName=NetR37_2 Pin=R37-2
Added Pin To Net: NetName=NetR37_2 Pin=U7-45
Added Net: Name=NetR37_2
Added Pin To Net: NetName=NetR38_2 Pin=R38-2
Added Pin To Net: NetName=NetR38_2 Pin=U7-44
Added Net: Name=NetR38_2
Added Pin To Net: NetName=NetR39_2 Pin=R39-2
Added Pin To Net: NetName=NetR39_2 Pin=U7-42
Added Net: Name=NetR39_2
Added Pin To Net: NetName=NetR40_2 Pin=R40-2
Added Pin To Net: NetName=NetR40_2 Pin=U7-13
Added Net: Name=NetR40_2
Added Pin To Net: NetName=NetR41_2 Pin=R41-2
Added Pin To Net: NetName=NetR41_2 Pin=U7-11
Added Net: Name=NetR41_2
Added Pin To Net: NetName=NetR42_2 Pin=R42-2
Added Pin To Net: NetName=NetR42_2 Pin=U7-10
Added Net: Name=NetR42_2
Added Pin To Net: NetName=NetR43_2 Pin=R43-2
Added Pin To Net: NetName=NetR43_2 Pin=U7-8
Added Net: Name=NetR43_2
Added Pin To Net: NetName=NetR44_2 Pin=R44-2
Added Pin To Net: NetName=NetR44_2 Pin=U7-7
Added Net: Name=NetR44_2
Added Pin To Net: NetName=NetR45_2 Pin=R45-2
Added Pin To Net: NetName=NetR45_2 Pin=U7-5
Added Net: Name=NetR45_2
Added Pin To Net: NetName=NetR46_2 Pin=R46-2
Added Pin To Net: NetName=NetR46_2 Pin=U7-4
Added Net: Name=NetR46_2
Added Pin To Net: NetName=NetR47_2 Pin=R47-2
Added Pin To Net: NetName=NetR47_2 Pin=U7-2
Added Pin To Net: NetName=NetR47_2 Pin=U7-2
Added Net: Name=NetR47_2
Added Pin To Net: NetName=NetR48_1 Pin=R48-1
Added Pin To Net: NetName=NetR48_1 Pin=U1-26
Added Net: Name=NetR48_1
Added Pin To Net: NetName=NetR48_2 Pin=R48-2
Added Pin To Net: NetName=NetR48_2 Pin=U7-16
Added Net: Name=NetR48_2
Added Pin To Net: NetName=NetR49_1 Pin=R49-1
Added Pin To Net: NetName=NetR49_1 Pin=U1-132
Added Net: Name=NetR49_1
Added Pin To Net: NetName=NetR49_2 Pin=R49-2
Added Pin To Net: NetName=NetR49_2 Pin=U7-17
Added Net: Name=NetR49_2
Added Pin To Net: NetName=NetR50_1 Pin=R50-1
Added Pin To Net: NetName=NetR50_1 Pin=U1-49
Added Net: Name=NetR50_1
Added Pin To Net: NetName=NetR50_2 Pin=R50-2
Added Pin To Net: NetName=NetR50_2 Pin=U7-18
Added Net: Name=NetR50_2
Added Pin To Net: NetName=NetR51_1 Pin=R51-1
Added Pin To Net: NetName=NetR51_1 Pin=U1-28
Added Net: Name=NetR51_1
Added Pin To Net: NetName=NetR51_2 Pin=R51-2
Added Pin To Net: NetName=NetR51_2 Pin=U7-19
Added Net: Name=NetR51_2
Added Pin To Net: NetName=NetR52_1 Pin=R52-1
Added Pin To Net: NetName=NetR52_1 Pin=U1-93
Added Net: Name=NetR52_1
Added Pin To Net: NetName=NetR52_2 Pin=R52-2
Added Pin To Net: NetName=NetR52_2 Pin=U7-38
Added Net: Name=NetR52_2
Added Pin To Net: NetName=NetR53_1 Pin=R53-1
Added Pin To Net: NetName=NetR53_1 Pin=U1-29
Added Net: Name=NetR53_1
Added Pin To Net: NetName=NetR53_2 Pin=R53-2
Added Pin To Net: NetName=NetR53_2 Pin=U7-37
Added Net: Name=NetR53_2
Added Pin To Net: NetName=NetR54_1 Pin=R54-1
Added Pin To Net: NetName=NetR54_1 Pin=U1-141
Added Net: Name=NetR54_1
Added Pin To Net: NetName=NetR54_2 Pin=R54-2
Added Pin To Net: NetName=NetR54_2 Pin=U7-15
Added Net: Name=NetR54_2
Added Pin To Net: NetName=NetR55_1 Pin=R55-1
Added Pin To Net: NetName=NetR55_1 Pin=U1-142
Added Net: Name=NetR55_1
Added Pin To Net: NetName=NetR55_2 Pin=R55-2
Added Pin To Net: NetName=NetR55_2 Pin=U7-39
Added Net: Name=NetR55_2
Added Pin To Net: NetName=NetR56_1 Pin=R56-1
Added Pin To Net: NetName=NetR56_1 Pin=U1-89
Added Net: Name=NetR56_1
Added Pin To Net: NetName=NetR56_2 Pin=R56-2
Added Pin To Net: NetName=NetR56_2 Pin=U7-20
Added Net: Name=NetR56_2
Added Pin To Net: NetName=NetR57_1 Pin=R57-1
Added Pin To Net: NetName=NetR57_1 Pin=U1-90
Added Net: Name=NetR57_1
Added Pin To Net: NetName=NetR57_2 Pin=R57-2
Added Pin To Net: NetName=NetR57_2 Pin=U7-21
Added Net: Name=NetR57_2
Added Pin To Net: NetName=RST Pin=C5-2
Added Pin To Net: NetName=RST Pin=CN1-1
Added Pin To Net: NetName=RST Pin=R4-1
Added Pin To Net: NetName=RST Pin=SW1-2
Added Pin To Net: NetName=RST Pin=U1-25
Added Net: Name=RST
Added Pin To Net: NetName=SWCLK Pin=CN1-6
Added Pin To Net: NetName=SWCLK Pin=U1-109
Added Net: Name=SWCLK
Added Pin To Net: NetName=SWDIO Pin=CN1-2
Added Pin To Net: NetName=SWDIO Pin=U1-105
Added Net: Name=SWDIO
Added Pin To Net: NetName=VCC Pin=C46-1
Added Pin To Net: NetName=VCC Pin=C47-1
Added Pin To Net: NetName=VCC Pin=L1-2
Added Pin To Net: NetName=VCC Pin=L4-1
Added Pin To Net: NetName=VCC Pin=U9-3
Added Net: Name=VCC
Added Class: Name=U_adc_dac
Added Class: Name=U_board_connector
Added Class: Name=U_gpios
Added Class: Name=U_mcu_power
Added Class: Name=U_mcu
Added Class: Name=U_memory
Added Class: Name=U_power
Added Class: Name=U_signal_input_circuit
Added Room: Name=U_adc_dac
Added Room: Name=U_board_connector
Added Room: Name=U_gpios
Added Room: Name=U_mcu
Added Room: Name=U_mcu_power
Added Room: Name=U_memory
Added Room: Name=U_power
Added Room: Name=U_signal_input_circuit
