Removed Pin From Net: NetName=POTE1 Pin=CN4-3
Removed Pin From Net: NetName=I2S1_WS Pin=CN4-4
Removed Pin From Net: NetName=I2S1_CK Pin=CN4-5
Removed Pin From Net: NetName=I2S1_SD Pin=CN4-8
Removed Pin From Net: NetName=I2S1_MCK Pin=CN4-9
Removed Pin From Net: NetName=POTE2 Pin=CN4-10
Added Pin To Net: NetName=POTE2 Pin=CN4-3
Added Pin To Net: NetName=I2S1_MCK Pin=CN4-4
Added Pin To Net: NetName=I2S1_SD Pin=CN4-5
Added Pin To Net: NetName=I2S1_CK Pin=CN4-8
Added Pin To Net: NetName=I2S1_WS Pin=CN4-9
Added Pin To Net: NetName=POTE1 Pin=CN4-10
