Change Net Name : Old Net Name=NetR52_1 New Net Name=FMC_SDCLK
Change Net Name : Old Net Name=NetR53_1 New Net Name=FMC_SDCKE0
Change Net Name : Old Net Name=NetR54_1 New Net Name=FMC_NBL0
Change Net Name : Old Net Name=NetR55_1 New Net Name=FMC_NBL1
Change Net Name : Old Net Name=NetU1_26 New Net Name=FMC_SDNWE
Change Net Name : Old Net Name=NetU1_28 New Net Name=FMC_SDNE0
Change Net Name : Old Net Name=NetU1_49 New Net Name=FMC_SDNRAS
Change Net Name : Old Net Name=NetU1_89 New Net Name=FMC_BA0
Change Net Name : Old Net Name=NetU1_90 New Net Name=FMC_BA1
Change Net Name : Old Net Name=NetU1_132 New Net Name=FMC_SDNCAS
