Removed Pin From Net: NetName=I2S2_CK Pin=CN4-1
Removed Pin From Net: NetName=I2S2_WS Pin=CN4-2
Removed Pin From Net: NetName=I2S2_SD Pin=CN4-3
Removed Pin From Net: NetName=POTE1 Pin=CN4-10
Removed Pin From Net: NetName=POTE2 Pin=CN4-11
Removed Pin From Net: NetName=I2S2_MCK Pin=CN4-12
Added Pin To Net: NetName=I2S2_SD Pin=CN4-1
Added Pin To Net: NetName=I2S2_MCK Pin=CN4-2
Added Pin To Net: NetName=POTE1 Pin=CN4-3
Added Pin To Net: NetName=POTE2 Pin=CN4-10
Added Pin To Net: NetName=I2S2_WS Pin=CN4-11
Added Pin To Net: NetName=I2S2_CK Pin=CN4-12
