Removed Pin From Net: NetName=GND_D__TOP Pin=SW1-1
Removed Pin From Net: NetName=RST Pin=SW1-2
Change Component Comment : Designator=R9 Old Comment=1k 5% 1/10W New Comment=1K 5% 1/8W
Change Component Comment : Designator=R14 Old Comment=1k 5% 1/10W New Comment=1K 5% 1/8W
Change Component Comment : Designator=R18 Old Comment=1K 5% 1/10W New Comment=1K 5% 1/8W
Change Component Comment : Designator=R19 Old Comment=1K 5% 1/10W New Comment=1K 5% 1/8W
Change Component Comment : Designator=R20 Old Comment=1K 5% 1/10W New Comment=1K 5% 1/8W
Change Component Comment : Designator=C3 Old Comment=1uF 16V X7R New Comment=1UFX16V X7R
Change Component Comment : Designator=C7 Old Comment=1uF 16V X7R New Comment=1UFX16V X7R
Change Component Comment : Designator=C13 Old Comment=1uF 16V X7R New Comment=1UFX16V X7R
Change Component Comment : Designator=C14 Old Comment=1uF 16V X7R New Comment=1UFX16V X7R
Change Component Comment : Designator=C20 Old Comment=1uF 16V X7R New Comment=1UFX16V X7R
Change Component Comment : Designator=C21 Old Comment=1uF 16V X7R New Comment=1UFX16V X7R
Change Component Comment : Designator=C22 Old Comment=1uF 16V X7R New Comment=1UFX50V
Change Component Comment : Designator=C23 Old Comment=1uF 16V X7R New Comment=1UFX50V
Change Component Comment : Designator=R48 Old Comment=2k7 New Comment=2.7K 5% 1/8W
Change Component Comment : Designator=C45 Old Comment=4,7uf New Comment=4.7UFX16V X5R 10%
Change Component Comment : Designator=R2 Old Comment=8k2 New Comment=8.20K 1% 1/8W
Change Component Comment : Designator=R5 Old Comment=10k 5% 1/10W New Comment=10K 5% 1/8W
Change Component Comment : Designator=C24 Old Comment=10uF 50V 20% E New Comment=1UFX50V
Change Component Comment : Designator=C28 Old Comment=10uF 50V 20% E New Comment=10UFX16V 20%
Change Component Comment : Designator=C30 Old Comment=10uF 50V 20% E New Comment=10UFX16V 20%
Change Component Comment : Designator=C32 Old Comment=10uF 50V 20% E New Comment=10UFX16V 20%
Change Component Comment : Designator=C34 Old Comment=10uF 50V 20% E New Comment=10UFX16V 20%
Change Component Comment : Designator=C36 Old Comment=10uF 50V 20% E New Comment=10UFX16V 20%
Change Component Comment : Designator=C1 Old Comment=12pF 50V COG 5% New Comment=12PF 25V C0G/NP0
Change Component Comment : Designator=C2 Old Comment=12pF 50V COG 5% New Comment=12PF 25V C0G/NP0
Change Component Comment : Designator=R49 Old Comment=22k New Comment=22K 5% 1/8W
Change Component Comment : Designator=C50 Old Comment=22nf New Comment=22NFX50V X7R 10%
Change Component Comment : Designator=R10 Old Comment=22R 5% 1/10W New Comment=33E 5% 1/10W
Change Component Comment : Designator=R11 Old Comment=22R 5% 1/10W New Comment=33E 5% 1/10W
Change Component Comment : Designator=R12 Old Comment=22R 5% 1/10W New Comment=33E 5% 1/10W
Change Component Comment : Designator=R13 Old Comment=22R 5% 1/10W New Comment=33E 5% 1/10W
Change Component Comment : Designator=R6 Old Comment=33R 5% 1/10W New Comment=33E 5% 1/10W
Change Component Comment : Designator=R21 Old Comment=33R 5% 1/10W New Comment=33E 5% 1/10W
Change Component Comment : Designator=R22 Old Comment=33R 5% 1/10W New Comment=33E 5% 1/10W
Change Component Comment : Designator=R23 Old Comment=33R 5% 1/10W New Comment=33E 5% 1/10W
Change Component Comment : Designator=R24 Old Comment=33R 5% 1/10W New Comment=33E 5% 1/10W
Change Component Comment : Designator=R25 Old Comment=33R 5% 1/10W New Comment=33E 5% 1/10W
Change Component Comment : Designator=R26 Old Comment=33R 5% 1/10W New Comment=33E 5% 1/10W
Change Component Comment : Designator=R27 Old Comment=33R 5% 1/10W New Comment=33E 5% 1/10W
Change Component Comment : Designator=R28 Old Comment=33R 5% 1/10W New Comment=33E 5% 1/10W
Change Component Comment : Designator=R29 Old Comment=33R 5% 1/10W New Comment=33E 5% 1/10W
Change Component Comment : Designator=R30 Old Comment=33R 5% 1/10W New Comment=33E 5% 1/10W
Change Component Comment : Designator=R31 Old Comment=33R 5% 1/10W New Comment=33E 5% 1/10W
Change Component Comment : Designator=R32 Old Comment=33R 5% 1/10W New Comment=33E 5% 1/10W
Change Component Comment : Designator=R33 Old Comment=33R 5% 1/10W New Comment=33E 5% 1/10W
Change Component Comment : Designator=R34 Old Comment=33R 5% 1/10W New Comment=33E 5% 1/10W
Change Component Comment : Designator=R35 Old Comment=33R 5% 1/10W New Comment=33E 5% 1/10W
Change Component Comment : Designator=R36 Old Comment=33R 5% 1/10W New Comment=33E 5% 1/10W
Change Component Comment : Designator=R37 Old Comment=33R 5% 1/10W New Comment=33E 5% 1/10W
Change Component Comment : Designator=R38 Old Comment=33R 5% 1/10W New Comment=33E 5% 1/10W
Change Component Comment : Designator=R39 Old Comment=33R 5% 1/10W New Comment=33E 5% 1/10W
Change Component Comment : Designator=R40 Old Comment=33R 5% 1/10W New Comment=33E 5% 1/10W
Change Component Comment : Designator=R41 Old Comment=33R 5% 1/10W New Comment=33E 5% 1/10W
Change Component Comment : Designator=R42 Old Comment=33R 5% 1/10W New Comment=33E 5% 1/10W
Change Component Comment : Designator=R43 Old Comment=33R 5% 1/10W New Comment=33E 5% 1/10W
Change Component Comment : Designator=R44 Old Comment=33R 5% 1/10W New Comment=33E 5% 1/10W
Change Component Comment : Designator=R45 Old Comment=33R 5% 1/10W New Comment=33E 5% 1/10W
Change Component Comment : Designator=R46 Old Comment=33R 5% 1/10W New Comment=33E 5% 1/10W
Change Component Comment : Designator=R47 Old Comment=33R 5% 1/10W New Comment=33E 5% 1/10W
Change Component Comment : Designator=R52 Old Comment=33R 5% 1/10W New Comment=33E 5% 1/10W
Change Component Comment : Designator=R53 Old Comment=33R 5% 1/10W New Comment=33E 5% 1/10W
Change Component Comment : Designator=R54 Old Comment=33R 5% 1/10W New Comment=33E 5% 1/10W
Change Component Comment : Designator=R55 Old Comment=33R 5% 1/10W New Comment=33E 5% 1/10W
Change Component Comment : Designator=C53 Old Comment=47p New Comment=47PFX50V COG 5%
Change Component Comment : Designator=C4 Old Comment=100nF 50V X7R New Comment=100NFX16V X7R
Change Component Comment : Designator=C5 Old Comment=100nF 50V X7R New Comment=100NFX16V X7R
Change Component Comment : Designator=C6 Old Comment=100nF 50V X7R New Comment=100NFX16V X7R
Change Component Comment : Designator=C8 Old Comment=100nF 50V X7R New Comment=100NFX16V X7R
Change Component Comment : Designator=C9 Old Comment=100nF 50V X7R New Comment=100NFX16V X7R
Change Component Comment : Designator=C10 Old Comment=100nF 50V X7R New Comment=100NFX16V X7R
Change Component Comment : Designator=C11 Old Comment=100nF 50V X7R New Comment=100NFX16V X7R
Change Component Comment : Designator=C12 Old Comment=100nF 50V X7R New Comment=100NFX16V X7R
Change Component Comment : Designator=C15 Old Comment=100nF 50V X7R New Comment=100NFX16V X7R
Change Component Comment : Designator=C16 Old Comment=100nF 50V X7R New Comment=100NFX16V X7R
Change Component Comment : Designator=C17 Old Comment=100nF 50V X7R New Comment=100NFX16V X7R
Change Component Comment : Designator=C18 Old Comment=100nF 50V X7R New Comment=100NFX16V X7R
Change Component Comment : Designator=C19 Old Comment=100nF 50V X7R New Comment=100NFX16V X7R
Change Component Comment : Designator=C26 Old Comment=100nF 50V X7R New Comment=100NFX16V X7R
Change Component Comment : Designator=C27 Old Comment=100nF 50V X7R New Comment=100NFX16V X7R
Change Component Comment : Designator=C38 Old Comment=100nF 50V X7R New Comment=100NFX16V X7R
Change Component Comment : Designator=C39 Old Comment=100nF 50V X7R New Comment=100NFX16V X7R
Change Component Comment : Designator=C40 Old Comment=100nF 50V X7R New Comment=100NFX16V X7R
Change Component Comment : Designator=C41 Old Comment=100nF 50V X7R New Comment=100NFX16V X7R
Change Component Comment : Designator=C42 Old Comment=100nF 50V X7R New Comment=100NFX16V X7R
Change Component Comment : Designator=C43 Old Comment=100nF 50V X7R New Comment=100NFX16V X7R
Change Component Comment : Designator=C44 Old Comment=100nF 50V X7R New Comment=100NFX16V X7R
Change Component Comment : Designator=C55 Old Comment=100nF 50V X7R New Comment=100NFX16V X7R
Change Component Comment : Designator=C25 Old Comment=100nF 50V X7R New Comment=100NFX50V X7R
Change Component Comment : Designator=C29 Old Comment=100nF 50V X7R New Comment=100NFX50V X7R
Change Component Comment : Designator=C31 Old Comment=100nF 50V X7R New Comment=100NFX50V X7R
Change Component Comment : Designator=C33 Old Comment=100nF 50V X7R New Comment=100NFX50V X7R
Change Component Comment : Designator=C35 Old Comment=100nF 50V X7R New Comment=100NFX50V X7R
Change Component Comment : Designator=C37 Old Comment=100nF 50V X7R New Comment=100NFX50V X7R
Change Component Comment : Designator=C52 Old Comment=100nF 50V X7R New Comment=100NFX50V X7R
Change Component Comment : Designator=C54 Old Comment=100nF 50V X7R New Comment=100NFX50V X7R
Change Component Comment : Designator=C57 Old Comment=100nF 50V X7R New Comment=100NFX50V X7R
Change Component Comment : Designator=R15 Old Comment=150R 5% 1/8W New Comment=150E 1% 1/8W
Change Component Comment : Designator=R16 Old Comment=150R 5% 1/8W New Comment=150E 1% 1/8W
Change Component Comment : Designator=R17 Old Comment=150R 5% 1/8W New Comment=150E 1% 1/8W
Change Component Comment : Designator=R1 Old Comment=150R 5% 1/10W New Comment=150E 1%
Change Component Comment : Designator=R7 Old Comment=390E 5% 1/10W New Comment=390E 5% 1/8W
Change Component Comment : Designator=U2 Old Comment=A5972D New Comment=A5972D013TR
Change Component Comment : Designator=Q1 Old Comment=BC817-40 New Comment=BC817-40 45V0.5A
Change Component Comment : Designator=Q2 Old Comment=BC817-40 New Comment=BC817-40 45V0.5A
Change Component Comment : Designator=Q3 Old Comment=BC817-40 New Comment=BC817-40 45V0.5A
Change Component Comment : Designator=L3 Old Comment=CHOQUE 90OHMS 0.4A New Comment=CHIP FERRITE 3A 0.025E 
Change Component Comment : Designator=L4 Old Comment=CHOQUE 90OHMS 0.4A New Comment=CHIP FERRITE 3A 0.025E 
Change Component Comment : Designator=L5 Old Comment=CHOQUE 90OHMS 0.4A New Comment=CHIP FERRITE 3A 0.025E 
Change Component Comment : Designator=L6 Old Comment=CHOQUE 90OHMS 0.4A New Comment=CHIP FERRITE 3A 0.025E 
Change Component Comment : Designator=D1 Old Comment=Led_RGB_SMD New Comment=LED SMD RGB 5.4X5.4
Change Component Comment : Designator=U9 Old Comment=LM1117 New Comment=LM1117DTX-3.3
Change Component Comment : Designator=U3 Old Comment=MCP6241 New Comment=MCP6241T-E/SN
Change Component Comment : Designator=U4 Old Comment=MCP6241 New Comment=MCP6241T-E/SN
Change Component Comment : Designator=U7 Old Comment=MT48LC8M16A2P New Comment=MT48LC8M16A2TG
Change Component Comment : Designator=U6 Old Comment=PCM1781 New Comment=PCM1781DBQR
Change Component Comment : Designator=U5 Old Comment=PCM1808 New Comment=PCM1808PWR
Change Component Comment : Designator=R8 Old Comment=POT 10K OHM 3/4W PLASTIC LINEAR New Comment=POT 10K OHM 3/4W LINEAR
Change Component Comment : Designator=U1 Old Comment=STM32F446 New Comment=STM32F446ZCT6
Change Component Description : Designator=U5 Old Description= New Description=Conversor ADC - 24bits - stereo
Change Component Description : Designator=U6 Old Description= New Description=Conversor DAC - 24bits - stereo
Change Component Description : Designator=U7 Old Description= New Description=DRAM SDRAM 128M 8M X 16 TSOP
Change Component Description : Designator=SW1 Old Description=Tact switch 2 - TH New Description=Tact switch - 2 pines - TH
Added Pin To Net: NetName=RST Pin=SW1-1
Added Pin To Net: NetName=GND_D__TOP Pin=SW1-2
