Change Component Footprint: Designator=C38 Old Footprint=C_0805 New Footprint=R_0603
Change Component Footprint: Designator=C39 Old Footprint=C_0805 New Footprint=R_0603
Change Component Footprint: Designator=C40 Old Footprint=C_0805 New Footprint=R_0603
Change Component Footprint: Designator=C41 Old Footprint=C_0805 New Footprint=R_0603
Change Component Footprint: Designator=C42 Old Footprint=C_0805 New Footprint=R_0603
Change Component Footprint: Designator=C43 Old Footprint=C_0805 New Footprint=R_0603
Change Component Footprint: Designator=C44 Old Footprint=C_0805 New Footprint=R_0603
